<svg version="1.1" id="Camada_1" xmlns="http://www.w3.org/2000/svg" xmlns:xlink="http://www.w3.org/1999/xlink" x="0px" y="0px"
	 viewBox="0 0 512 512" style="enable-background:new 0 0 512 512;" xml:space="preserve">
<g id="_1">
	<path class="st0" d="M65.1,147c5.9-5.9,15.4-5.9,21.2,0l174.3,174.3L434.8,147c5.9-5.9,15.4-5.9,21.2,0c5.9,5.9,5.9,15.4,0,21.2
		L271.2,353.2c-5.9,5.9-15.4,5.9-21.2,0L65,168.3c-2.8-2.8-4.4-6.6-4.4-10.6C60.7,153.7,62.2,149.9,65.1,147z"/>
</g>
</svg>
